%YAML 1.1
%TAG !u! tag:unity3d.com,2011:
--- !u!1045 &1
EditorBuildSettings:
  m_ObjectHideFlags: 0
  serializedVersion: 2
  m_Scenes:
  - enabled: 1
    path: Assets/Scens/Main.unity
    guid: 1bda96498b8543745890c6269d827c8f
  - enabled: 1
    path: Assets/Scens/Game.unity
    guid: ffd5064c8680aae4e9b150d946ca9ade
  - enabled: 1
    path: Assets/Scens/EscMenu.unity
    guid: 3d27edb51b1146840948ce827144c8c2
  - enabled: 1
    path: Assets/Scens/WillMenu.unity
    guid: e6636e8fc13a49d4ab36cf4f790578d9
